{
  "swagger": "2.0",
  "info": {
    "title": "Challenge Documentation API",
    "description": "Documentation API user games",
    "version": "1.0.0"
  },
  "host": "localhost:3000",
  "basePath": "/",
  "schemes": [
    "http"
  ],
  "paths": {
    "/games": {
      "get": {
        "description": "",
        "parameters": [],
        "responses": {
          "200": {
            "description": "Get List data",
            "schema": {
              "type": "array",
              "items":{
                "type": "object",
                "properties":{
                  "id":{
                    "example":"3"
                  },
                  "username":{
                    "example":"opink"
                  },
                  "password":{
                    "example":"An344312"
                  }
                }
              }
            }
          },
          "500":{
            "description": "Get error",
            "schema": {
              "type":"object",
              "properties":{
                "message":{
                  "example": "Internal Server Error"
                }
              }
            }
          }
        }
      },
      "post": {
        "description": "",
        "parameters": [
          {
            "name": "body",
            "in": "body",
            "schema": {
              "type": "object",
              "properties": {
                "username": {
                  "example": "binar"
                },
                "password": {
                  "example": "aws431"
                }
              }
            }
          }
        ],
        "responses": {
          "200": {
            "description": "Create User",
            "schema":{ 
              "type":"object",
              "properties":{
                "message":{
                  "example": "Successfully create user"
                }
              }
            }
          },
          "500":{
            "description": "Create user error",
            "schema": {
              "type":"object",
              "properties":{
                "message":{
                  "example": "Internal Server Error"
                }
              }
            }
          }
        }
      }
    },
    "/games/{id}": {
      "get": {
        "description": "",
        "parameters": [
          {
            "name": "id",
            "in": "path",
            "required": true,
            "type": "string"
          }
        ],
        "responses": {
          "200": {
            "description": "Get User",
            "schema":{ 
              "type":"object",
              "properties":{
                "id": {
                  "example": "6"
                },
                "username":{
                  "example":"opink"
                },
                "password": {
                  "example": "test123"
                },
                "createdAt": {
                  "example": "2022-04-21T15:05:35.841Z"
                },
                "updatedAt":{
                  "example": "2022-04-21T15:05:35.841Z"
                } 
              }
            }
          },
          "404":{
            "description": "Id not found",
            "schema": {
              "type":"object",
              "properties":{
                "message":{
                  "example": "User not found"
                }
              }
            }
          },
          "500":{
            "description": "Get id error",
            "schema": {
              "type":"object",
              "properties":{
                "message":{
                  "example": "Internal Server Error"
                }
              }
            }
          }
        }
      },
      "put": {
        "description": "",
        "parameters": [
          {
            "name": "id",
            "in": "path",
            "required": true,
            "type": "string"
          },
          {
            "name": "body",
            "in": "body",
            "schema": {
              "type": "object",
              "properties": {
                "password": {
                  "example": "opinkajadah2"
                }
              }
            }
          }
        ],
        "responses": {
          "200": {
            "description": "Update user ( Password )",
            "schema":{ 
              "type":"object",
              "properties":{
                "message":{
                  "example": "Successfully update user"
                }
              }
            }
          },
          "404":{
            "description": "Id not found",
            "schema": {
              "type":"object",
              "properties":{
                "message":{
                  "example": "User not found"
                }
              }
            }
          },
          "500":{
            "description": "Put error",
            "schema": {
              "type":"object",
              "properties":{
                "message":{
                  "example": "Internal Server Error"
                }
              }
            }
          }
        }
      },
      "delete": {
        "description": "",
        "parameters": [
          {
            "name": "id",
            "in": "path",
            "required": true,
            "type": "string"
          }
        ],
        "responses": {
          "200": {
            "description": "Delete user",
            "schema":{ 
              "type":"object",
              "properties":{
                "message":{
                  "example": "Successfully delete user"
                }
              }
            }
          },
          "404":{
            "description": "Id not found",
            "schema": {
              "type":"object",
              "properties":{
                "message":{
                  "example": "User not found"
                }
              }
            }
          },
          "500":{
            "description": "Delete error",
            "schema": {
              "type":"object",
              "properties":{
                "message":{
                  "example": "Internal Server Error"
                }
              }
            }
          }
        }
      }
    },
    "/api-docs": {
      "get": {
        "description": "",
        "parameters": [],
        "responses": {}
      }
    }
  }
}